This is BibTeX, Version 0.99d (TeX Live 2013/Debian)
Capacity: max_strings=35307, hash_size=35307, hash_prime=30011
The top-level auxiliary file: invkin.aux
The style file: unsrt.bst
Database file #1: invkin.bib
You've used 2 entries,
            1791 wiz_defined-function locations,
            457 strings with 3853 characters,
and the built_in function-call counts, 394 in all, are:
= -- 33
> -- 15
< -- 1
+ -- 6
- -- 4
* -- 26
:= -- 69
add.period$ -- 6
call.type$ -- 2
change.case$ -- 1
chr.to.int$ -- 0
cite$ -- 2
duplicate$ -- 19
empty$ -- 40
format.name$ -- 4
if$ -- 84
int.to.chr$ -- 0
int.to.str$ -- 2
missing$ -- 3
newline$ -- 13
num.names$ -- 2
pop$ -- 7
preamble$ -- 1
purify$ -- 0
quote$ -- 0
skip$ -- 6
stack$ -- 0
substring$ -- 13
swap$ -- 3
text.length$ -- 1
text.prefix$ -- 0
top$ -- 0
type$ -- 0
warning$ -- 0
while$ -- 4
width$ -- 3
write$ -- 24
