\relax 
\@writefile{toc}{\contentsline {section}{\numberline {1}Few Basics related to Angular Velocity}{1}}
\newlabel{eq:rot_der}{{1}{1}}
\newlabel{eq:rdot}{{2}{1}}
\newlabel{eq:rdotw}{{2}{1}}
\newlabel{eq:ssp2}{{3}{1}}
\newlabel{eq:ssp3}{{4}{1}}
\newlabel{eq:angvel}{{5}{1}}
\newlabel{eq:rotn}{{6}{1}}
\newlabel{dot_rotn}{{7}{1}}
\newlabel{eq:angveladd}{{8}{1}}
\newlabel{eq:homtrans}{{9}{1}}
\newlabel{eq:ptvec}{{10}{1}}
\newlabel{eq:pdot}{{11}{1}}
\@writefile{toc}{\contentsline {section}{\numberline {2}Derivation of the Manipulator Jacobian}{1}}
\newlabel{eq:T0n}{{12}{1}}
\newlabel{eq:sw1}{{13}{1}}
\newlabel{eq:jacob1}{{14}{1}}
\newlabel{eq:angvi}{{15}{1}}
\newlabel{eq:angvel_ef}{{16}{1}}
\citation{craig2005introduction}
\newlabel{eq:ang_jacob}{{17}{2}}
\newlabel{eq:angjac2}{{18}{2}}
\newlabel{eq:jacobm}{{19}{2}}
\newlabel{eq:jvi}{{20}{2}}
\newlabel{eq:jwi}{{21}{2}}
\@writefile{toc}{\contentsline {section}{\numberline {3}Jacobian Transpose Method for Inverse Kinematics}{2}}
\newlabel{sec:jacobt}{{3}{2}}
\newlabel{eq:lyap}{{22}{2}}
\newlabel{eq:vdot}{{23}{2}}
\newlabel{eq:control1}{{24}{2}}
\newlabel{eq:vdot2}{{25}{2}}
\@writefile{lof}{\contentsline {figure}{\numberline {1}{\ignorespaces Evolution of pose error over time with Jacobian transpose method.}}{2}}
\newlabel{fig:error}{{1}{2}}
\@writefile{toc}{\contentsline {section}{\numberline {4}Pseudo-inverse Method for Inverse Kinematics}{2}}
\newlabel{sec:pinv}{{4}{2}}
\newlabel{eq:fk}{{26}{2}}
\newlabel{eq:fkvel}{{27}{2}}
\citation{wang2010inverse}
\@writefile{lof}{\contentsline {figure}{\numberline {2}{\ignorespaces Jacobian Transpose Method: Actual and Desired Pose Configuration}}{3}}
\newlabel{fig:pose_config}{{2}{3}}
\newlabel{eq:ikvel}{{28}{3}}
\newlabel{eq:mpi}{{29}{3}}
\newlabel{eq:mns}{{30}{3}}
\newlabel{eq:pi_prop}{{31}{3}}
\newlabel{eq:nullsp}{{31}{3}}
\@writefile{toc}{\contentsline {subsection}{\numberline {4.1}Closed Loop Inverse Kinematics Solution}{3}}
\newlabel{eq:efferror}{{32}{3}}
\newlabel{eq:control2}{{33}{3}}
\@writefile{toc}{\contentsline {subsection}{\numberline {4.2}Null-Space Optimization}{3}}
\newlabel{eq:gik}{{34}{3}}
\newlabel{eq:nspq}{{35}{3}}
\bibstyle{unsrt}
\bibdata{invkin}
\bibcite{craig2005introduction}{1}
\bibcite{wang2010inverse}{2}
\newlabel{eq:jla_cost}{{36}{4}}
\@writefile{lof}{\contentsline {figure}{\numberline {3}{\ignorespaces Robot Configurations for tracking a trajectory \textbf  {without} null space optimization}}{4}}
\newlabel{fig:rcong-traj}{{3}{4}}
\@writefile{lof}{\contentsline {figure}{\numberline {4}{\ignorespaces Trajectory Tracking with null space optimization}}{4}}
\newlabel{fig:trajerr_jla}{{4}{4}}
\@writefile{toc}{\contentsline {subsection}{\numberline {4.3}Damped Least Square Method}{4}}
\newlabel{sec:dls}{{4.3}{4}}
\@writefile{lof}{\contentsline {figure}{\numberline {5}{\ignorespaces Robot Configurations for tracking the trajectory with null space optimization.}}{4}}
\newlabel{fig:rcong-jla}{{5}{4}}
\@writefile{lof}{\contentsline {figure}{\numberline {6}{\ignorespaces Joint Angle norm with and without null space optimization}}{4}}
\newlabel{fig:thnorm}{{6}{4}}
\newlabel{eq:pinv2}{{37}{4}}
\newlabel{eq:dls-cost}{{38}{4}}
\newlabel{eq:dls}{{39}{4}}
