%!PS-Adobe-3.0 EPSF-3.0
%%Title: dh_par.fig
%%Creator: fig2dev Version 3.2 Patchlevel 5e
%%CreationDate: Thu Apr 30 14:45:18 2015
%%BoundingBox: 0 0 651 1105
%Magnification: 1.0000
%%EndComments
%%BeginProlog
/$F2psDict 200 dict def
$F2psDict begin
$F2psDict /mtrx matrix put
/col-1 {0 setgray} bind def
/col0 {0.000 0.000 0.000 srgb} bind def
/col1 {0.000 0.000 1.000 srgb} bind def
/col2 {0.000 1.000 0.000 srgb} bind def
/col3 {0.000 1.000 1.000 srgb} bind def
/col4 {1.000 0.000 0.000 srgb} bind def
/col5 {1.000 0.000 1.000 srgb} bind def
/col6 {1.000 1.000 0.000 srgb} bind def
/col7 {1.000 1.000 1.000 srgb} bind def
/col8 {0.000 0.000 0.560 srgb} bind def
/col9 {0.000 0.000 0.690 srgb} bind def
/col10 {0.000 0.000 0.820 srgb} bind def
/col11 {0.530 0.810 1.000 srgb} bind def
/col12 {0.000 0.560 0.000 srgb} bind def
/col13 {0.000 0.690 0.000 srgb} bind def
/col14 {0.000 0.820 0.000 srgb} bind def
/col15 {0.000 0.560 0.560 srgb} bind def
/col16 {0.000 0.690 0.690 srgb} bind def
/col17 {0.000 0.820 0.820 srgb} bind def
/col18 {0.560 0.000 0.000 srgb} bind def
/col19 {0.690 0.000 0.000 srgb} bind def
/col20 {0.820 0.000 0.000 srgb} bind def
/col21 {0.560 0.000 0.560 srgb} bind def
/col22 {0.690 0.000 0.690 srgb} bind def
/col23 {0.820 0.000 0.820 srgb} bind def
/col24 {0.500 0.190 0.000 srgb} bind def
/col25 {0.630 0.250 0.000 srgb} bind def
/col26 {0.750 0.380 0.000 srgb} bind def
/col27 {1.000 0.500 0.500 srgb} bind def
/col28 {1.000 0.630 0.630 srgb} bind def
/col29 {1.000 0.750 0.750 srgb} bind def
/col30 {1.000 0.880 0.880 srgb} bind def
/col31 {1.000 0.840 0.000 srgb} bind def

end

/cp {closepath} bind def
/ef {eofill} bind def
/gr {grestore} bind def
/gs {gsave} bind def
/sa {save} bind def
/rs {restore} bind def
/l {lineto} bind def
/m {moveto} bind def
/rm {rmoveto} bind def
/n {newpath} bind def
/s {stroke} bind def
/sh {show} bind def
/slc {setlinecap} bind def
/slj {setlinejoin} bind def
/slw {setlinewidth} bind def
/srgb {setrgbcolor} bind def
/rot {rotate} bind def
/sc {scale} bind def
/sd {setdash} bind def
/ff {findfont} bind def
/sf {setfont} bind def
/scf {scalefont} bind def
/sw {stringwidth} bind def
/tr {translate} bind def
/tnt {dup dup currentrgbcolor
  4 -2 roll dup 1 exch sub 3 -1 roll mul add
  4 -2 roll dup 1 exch sub 3 -1 roll mul add
  4 -2 roll dup 1 exch sub 3 -1 roll mul add srgb}
  bind def
/shd {dup dup currentrgbcolor 4 -2 roll mul 4 -2 roll mul
  4 -2 roll mul srgb} bind def
/reencdict 12 dict def /ReEncode { reencdict begin
/newcodesandnames exch def /newfontname exch def /basefontname exch def
/basefontdict basefontname findfont def /newfont basefontdict maxlength dict def
basefontdict { exch dup /FID ne { dup /Encoding eq
{ exch dup length array copy newfont 3 1 roll put }
{ exch newfont 3 1 roll put } ifelse } { pop pop } ifelse } forall
newfont /FontName newfontname put newcodesandnames aload pop
128 1 255 { newfont /Encoding get exch /.notdef put } for
newcodesandnames length 2 idiv { newfont /Encoding get 3 1 roll put } repeat
newfontname newfont definefont pop end } def
/isovec [
8#055 /minus 8#200 /grave 8#201 /acute 8#202 /circumflex 8#203 /tilde
8#204 /macron 8#205 /breve 8#206 /dotaccent 8#207 /dieresis
8#210 /ring 8#211 /cedilla 8#212 /hungarumlaut 8#213 /ogonek 8#214 /caron
8#220 /dotlessi 8#230 /oe 8#231 /OE
8#240 /space 8#241 /exclamdown 8#242 /cent 8#243 /sterling
8#244 /currency 8#245 /yen 8#246 /brokenbar 8#247 /section 8#250 /dieresis
8#251 /copyright 8#252 /ordfeminine 8#253 /guillemotleft 8#254 /logicalnot
8#255 /hyphen 8#256 /registered 8#257 /macron 8#260 /degree 8#261 /plusminus
8#262 /twosuperior 8#263 /threesuperior 8#264 /acute 8#265 /mu 8#266 /paragraph
8#267 /periodcentered 8#270 /cedilla 8#271 /onesuperior 8#272 /ordmasculine
8#273 /guillemotright 8#274 /onequarter 8#275 /onehalf
8#276 /threequarters 8#277 /questiondown 8#300 /Agrave 8#301 /Aacute
8#302 /Acircumflex 8#303 /Atilde 8#304 /Adieresis 8#305 /Aring
8#306 /AE 8#307 /Ccedilla 8#310 /Egrave 8#311 /Eacute
8#312 /Ecircumflex 8#313 /Edieresis 8#314 /Igrave 8#315 /Iacute
8#316 /Icircumflex 8#317 /Idieresis 8#320 /Eth 8#321 /Ntilde 8#322 /Ograve
8#323 /Oacute 8#324 /Ocircumflex 8#325 /Otilde 8#326 /Odieresis 8#327 /multiply
8#330 /Oslash 8#331 /Ugrave 8#332 /Uacute 8#333 /Ucircumflex
8#334 /Udieresis 8#335 /Yacute 8#336 /Thorn 8#337 /germandbls 8#340 /agrave
8#341 /aacute 8#342 /acircumflex 8#343 /atilde 8#344 /adieresis 8#345 /aring
8#346 /ae 8#347 /ccedilla 8#350 /egrave 8#351 /eacute
8#352 /ecircumflex 8#353 /edieresis 8#354 /igrave 8#355 /iacute
8#356 /icircumflex 8#357 /idieresis 8#360 /eth 8#361 /ntilde 8#362 /ograve
8#363 /oacute 8#364 /ocircumflex 8#365 /otilde 8#366 /odieresis 8#367 /divide
8#370 /oslash 8#371 /ugrave 8#372 /uacute 8#373 /ucircumflex
8#374 /udieresis 8#375 /yacute 8#376 /thorn 8#377 /ydieresis] def
/Times-Roman /Times-Roman-iso isovec ReEncode
/$F2psBegin {$F2psDict begin /$F2psEnteredState save def} def
/$F2psEnd {$F2psEnteredState restore end} def

/pageheader {
save
newpath 0 1105 moveto 0 0 lineto 651 0 lineto 651 1105 lineto closepath clip newpath
-31.2 589.6 translate
1 -1 scale
$F2psBegin
10 setmiterlimit
0 slj 0 slc
 0.06299 0.06299 sc
} bind def
/pagefooter {
$F2psEnd
restore
} bind def
%%EndProlog
pageheader
%
% Fig objects follow
%
% 
% here starts figure with depth 50
%  main dimension line 
% Polyline
0 slj
0 slc
15.000 slw
gs  clippath
4890 8503 m 4890 8790 l 5010 8790 l 5010 8503 l 5010 8503 l 4950 8743 l 4890 8503 l cp
5010 7022 m 5010 6735 l 4890 6735 l 4890 7022 l 4890 7022 l 4950 6782 l 5010 7022 l cp
eoclip
n 4950 6750 m
 4950 8775 l gs col4 s gr gr

% arrowhead
n 5010 7022 m 4950 6782 l 4890 7022 l 5010 7022 l  cp gs col4 1.00 shd ef gr  col4 s
% arrowhead
n 4890 8503 m 4950 8743 l 5010 8503 l 4890 8503 l  cp gs col4 1.00 shd ef gr  col4 s
%  tick 
% Polyline
7.500 slw
n 4793 8775 m
 5107 8775 l gs col4 s gr 
%  tick 
% Polyline
n 4793 6750 m
 5107 6750 l gs col4 s gr 
%  main dimension line 
% Polyline
15.000 slw
gs  clippath
615 -271 m 615 15 l 735 15 l 735 -271 l 735 -271 l 675 -31 l 615 -271 l cp
735 -1752 m 735 -2040 l 615 -2040 l 615 -1752 l 615 -1752 l 675 -1992 l 735 -1752 l cp
eoclip
n 675 -2025 m
 675 0 l gs col4 s gr gr

% arrowhead
n 735 -1752 m 675 -1992 l 615 -1752 l 735 -1752 l  cp gs col4 1.00 shd ef gr  col4 s
% arrowhead
n 615 -271 m 675 -31 l 735 -271 l 615 -271 l  cp gs col4 1.00 shd ef gr  col4 s
%  tick 
% Polyline
7.500 slw
n 518 0 m
 832 0 l gs col4 s gr 
%  tick 
% Polyline
n 518 -2025 m
 832 -2025 l gs col4 s gr 
%  main dimension line 
% Polyline
15.000 slw
gs  clippath
4215 -2296 m 4215 -2010 l 4335 -2010 l 4335 -2296 l 4335 -2296 l 4275 -2056 l 4215 -2296 l cp
4335 -3777 m 4335 -4065 l 4215 -4065 l 4215 -3777 l 4215 -3777 l 4275 -4017 l 4335 -3777 l cp
eoclip
n 4275 -4050 m
 4275 -2025 l gs col4 s gr gr

% arrowhead
n 4335 -3777 m 4275 -4017 l 4215 -3777 l 4335 -3777 l  cp gs col4 1.00 shd ef gr  col4 s
% arrowhead
n 4215 -2296 m 4275 -2056 l 4335 -2296 l 4215 -2296 l  cp gs col4 1.00 shd ef gr  col4 s
%  tick 
% Polyline
7.500 slw
n 4118 -2025 m
 4432 -2025 l gs col4 s gr 
%  tick 
% Polyline
n 4118 -4050 m
 4432 -4050 l gs col4 s gr 
%  main dimension line 
% Polyline
15.000 slw
gs  clippath
4215 -4321 m 4215 -4035 l 4335 -4035 l 4335 -4321 l 4335 -4321 l 4275 -4081 l 4215 -4321 l cp
4335 -5802 m 4335 -6090 l 4215 -6090 l 4215 -5802 l 4215 -5802 l 4275 -6042 l 4335 -5802 l cp
eoclip
n 4275 -6075 m
 4275 -4050 l gs col4 s gr gr

% arrowhead
n 4335 -5802 m 4275 -6042 l 4215 -5802 l 4335 -5802 l  cp gs col4 1.00 shd ef gr  col4 s
% arrowhead
n 4215 -4321 m 4275 -4081 l 4335 -4321 l 4215 -4321 l  cp gs col4 1.00 shd ef gr  col4 s
%  tick 
% Polyline
7.500 slw
n 4118 -4050 m
 4432 -4050 l gs col4 s gr 
%  tick 
% Polyline
n 4118 -6075 m
 4432 -6075 l gs col4 s gr 
%  main dimension line 
% Polyline
15.000 slw
gs  clippath
1065 3778 m 1065 4065 l 1185 4065 l 1185 3778 l 1185 3778 l 1125 4018 l 1065 3778 l cp
1185 2747 m 1185 2460 l 1065 2460 l 1065 2747 l 1065 2747 l 1125 2507 l 1185 2747 l cp
eoclip
n 1125 2475 m
 1125 4050 l gs col4 s gr gr

% arrowhead
n 1185 2747 m 1125 2507 l 1065 2747 l 1185 2747 l  cp gs col4 1.00 shd ef gr  col4 s
% arrowhead
n 1065 3778 m 1125 4018 l 1185 3778 l 1065 3778 l  cp gs col4 1.00 shd ef gr  col4 s
%  tick 
% Polyline
7.500 slw
n 968 4050 m
 1282 4050 l gs col4 s gr 
%  tick 
% Polyline
n 968 2475 m
 1282 2475 l gs col4 s gr 
% Polyline
15.000 slw
n 6525 225 m 10125 225 l 10125 2250 l 6525 2250 l
 cp gs col0 s gr 
% Arc
n 2407.2 5392.9 1359.6 -87.1402 86.5071 arcn
gs col4 s gr

% Arc
n 2520.2 1244.3 1215.7 -92.8390 90.0101 arcn
gs col4 s gr

% Polyline
gs  clippath
4020 8820 m 4290 8820 l 4290 8730 l 4020 8730 l 4020 8730 l 4208 8775 l 4020 8820 l cp
eoclip
n 2475 8775 m
 4275 8775 l gs col0 s gr gr

% arrowhead
30.000 slw
n 4020 8820 m 4208 8775 l 4020 8730 l 4058 8775 l 4020 8820 l 
 cp gs 0.00 setgray ef gr  col0 s
% Polyline
15.000 slw
gs  clippath
2520 7904 m 2520 7635 l 2430 7635 l 2430 7904 l 2430 7904 l 2475 7717 l 2520 7904 l cp
eoclip
n 2475 8775 m
 2475 7650 l gs col0 s gr gr

% arrowhead
30.000 slw
n 2520 7904 m 2475 7717 l 2430 7904 l 2475 7867 l 2520 7904 l 
 cp gs 0.00 setgray ef gr  col0 s
% Polyline
15.000 slw
gs  clippath
2520 5879 m 2520 5610 l 2430 5610 l 2430 5879 l 2430 5879 l 2475 5692 l 2520 5879 l cp
eoclip
n 2475 6750 m
 2475 5625 l gs col0 s gr gr

% arrowhead
30.000 slw
n 2520 5879 m 2475 5692 l 2430 5879 l 2475 5842 l 2520 5879 l 
 cp gs 0.00 setgray ef gr  col0 s
% Polyline
15.000 slw
gs  clippath
4020 6795 m 4290 6795 l 4290 6705 l 4020 6705 l 4020 6705 l 4208 6750 l 4020 6795 l cp
eoclip
n 2475 6750 m
 4275 6750 l gs col0 s gr gr

% arrowhead
30.000 slw
n 4020 6795 m 4208 6750 l 4020 6705 l 4058 6750 l 4020 6795 l 
 cp gs 0.00 setgray ef gr  col0 s
% Polyline
15.000 slw
gs  clippath
4020 4095 m 4290 4095 l 4290 4005 l 4020 4005 l 4020 4005 l 4208 4050 l 4020 4095 l cp
eoclip
n 2475 4050 m
 4275 4050 l gs col0 s gr gr

% arrowhead
30.000 slw
n 4020 4095 m 4208 4050 l 4020 4005 l 4058 4050 l 4020 4095 l 
 cp gs 0.00 setgray ef gr  col0 s
% Polyline
15.000 slw
gs  clippath
2430 4920 m 2430 5190 l 2520 5190 l 2520 4920 l 2520 4920 l 2475 5108 l 2430 4920 l cp
eoclip
n 2475 4050 m
 2475 5175 l gs col0 s gr gr

% arrowhead
30.000 slw
n 2430 4920 m 2475 5108 l 2520 4920 l 2475 4958 l 2430 4920 l 
 cp gs 0.00 setgray ef gr  col0 s
% Polyline
15.000 slw
gs  clippath
3429 3344 m 3639 3175 l 3583 3105 l 3373 3273 l 3373 3273 l 3548 3192 l 3429 3344 l cp
eoclip
n 2475 4050 m
 3600 3150 l gs col0 s gr gr

% arrowhead
30.000 slw
n 3429 3344 m 3548 3192 l 3373 3273 l 3430 3285 l 3429 3344 l 
 cp gs 0.00 setgray ef gr  col0 s
% Polyline
15.000 slw
gs  clippath
4020 2520 m 4290 2520 l 4290 2430 l 4020 2430 l 4020 2430 l 4208 2475 l 4020 2520 l cp
eoclip
n 2475 2475 m
 4275 2475 l gs col0 s gr gr

% arrowhead
30.000 slw
n 4020 2520 m 4208 2475 l 4020 2430 l 4058 2475 l 4020 2520 l 
 cp gs 0.00 setgray ef gr  col0 s
% Polyline
15.000 slw
gs  clippath
2520 1604 m 2520 1335 l 2430 1335 l 2430 1604 l 2430 1604 l 2475 1417 l 2520 1604 l cp
eoclip
n 2475 2475 m
 2475 1350 l gs col0 s gr gr

% arrowhead
30.000 slw
n 2520 1604 m 2475 1417 l 2430 1604 l 2475 1567 l 2520 1604 l 
 cp gs 0.00 setgray ef gr  col0 s
% Polyline
15.000 slw
gs  clippath
3658 1547 m 3865 1374 l 3807 1305 l 3601 1478 l 3601 1478 l 3774 1393 l 3658 1547 l cp
eoclip
n 2475 2475 m
 3825 1350 l gs col0 s gr gr

% arrowhead
30.000 slw
n 3658 1547 m 3774 1393 l 3601 1478 l 3658 1489 l 3658 1547 l 
 cp gs 0.00 setgray ef gr  col0 s
% Polyline
15.000 slw
gs  clippath
4020 45 m 4290 45 l 4290 -45 l 4020 -45 l 4020 -45 l 4208 0 l 4020 45 l cp
eoclip
n 2475 0 m
 4275 0 l gs col0 s gr gr

% arrowhead
30.000 slw
n 4020 45 m 4208 0 l 4020 -45 l 4058 0 l 4020 45 l 
 cp gs 0.00 setgray ef gr  col0 s
% Polyline
15.000 slw
gs  clippath
2520 -869 m 2520 -1140 l 2430 -1140 l 2430 -869 l 2430 -869 l 2475 -1057 l 2520 -869 l cp
eoclip
n 2475 0 m
 2475 -1125 l gs col0 s gr gr

% arrowhead
30.000 slw
n 2520 -869 m 2475 -1057 l 2430 -869 l 2475 -907 l 2520 -869 l 
 cp gs 0.00 setgray ef gr  col0 s
% Polyline
15.000 slw
gs  clippath
3637 -720 m 3862 -870 l 3812 -945 l 3588 -795 l 3588 -795 l 3769 -862 l 3637 -720 l cp
eoclip
n 2475 0 m
 3825 -900 l gs col0 s gr gr

% arrowhead
30.000 slw
n 3637 -720 m 3769 -862 l 3588 -795 l 3644 -778 l 3637 -720 l 
 cp gs 0.00 setgray ef gr  col0 s
% Polyline
15.000 slw
gs  clippath
1379 -2069 m 1110 -2070 l 1110 -1980 l 1379 -1979 l 1379 -1979 l 1192 -2024 l 1379 -2069 l cp
eoclip
n 2475 -2025 m
 1125 -2025 l gs col0 s gr gr

% arrowhead
30.000 slw
n 1379 -2069 m 1192 -2024 l 1379 -1979 l 1342 -2024 l 1379 -2069 l 
 cp gs 0.00 setgray ef gr  col0 s
% Polyline
15.000 slw
gs  clippath
2520 -2894 m 2520 -3165 l 2430 -3165 l 2430 -2894 l 2430 -2894 l 2475 -3082 l 2520 -2894 l cp
eoclip
n 2475 -2025 m
 2475 -3150 l gs col0 s gr gr

% arrowhead
30.000 slw
n 2520 -2894 m 2475 -3082 l 2430 -2894 l 2475 -2932 l 2520 -2894 l 
 cp gs 0.00 setgray ef gr  col0 s
% Polyline
15.000 slw
gs  clippath
3199 -2510 m 3414 -2673 l 3360 -2745 l 3145 -2582 l 3145 -2582 l 3322 -2659 l 3199 -2510 l cp
eoclip
n 2475 -2025 m
 3375 -2700 l gs col0 s gr gr

% arrowhead
30.000 slw
n 3199 -2510 m 3322 -2659 l 3145 -2582 l 3202 -2569 l 3199 -2510 l 
 cp gs 0.00 setgray ef gr  col0 s
% Polyline
15.000 slw
gs  clippath
2520 -5144 m 2520 -5415 l 2430 -5415 l 2430 -5144 l 2430 -5144 l 2475 -5332 l 2520 -5144 l cp
eoclip
n 2475 -4050 m
 2475 -5400 l gs col0 s gr gr

% arrowhead
30.000 slw
n 2520 -5144 m 2475 -5332 l 2430 -5144 l 2475 -5182 l 2520 -5144 l 
 cp gs 0.00 setgray ef gr  col0 s
% Polyline
15.000 slw
gs  clippath
3570 -4004 m 3840 -4005 l 3840 -4095 l 3570 -4094 l 3570 -4094 l 3758 -4049 l 3570 -4004 l cp
eoclip
n 2475 -4050 m
 3825 -4050 l gs col0 s gr gr

% arrowhead
30.000 slw
n 3570 -4004 m 3758 -4049 l 3570 -4094 l 3608 -4049 l 3570 -4004 l 
 cp gs 0.00 setgray ef gr  col0 s
% Polyline
15.000 slw
gs  clippath
1782 -3753 m 1541 -3633 l 1581 -3553 l 1822 -3672 l 1822 -3672 l 1635 -3629 l 1782 -3753 l cp
eoclip
n 2475 -4050 m
 1575 -3600 l gs col0 s gr gr

% arrowhead
30.000 slw
n 1782 -3753 m 1635 -3629 l 1822 -3672 l 1769 -3696 l 1782 -3753 l 
 cp gs 0.00 setgray ef gr  col0 s
% Polyline
15.000 slw
gs  clippath
2520 -7169 m 2520 -7440 l 2430 -7440 l 2430 -7169 l 2430 -7169 l 2475 -7357 l 2520 -7169 l cp
eoclip
n 2475 -6075 m
 2475 -7425 l gs col0 s gr gr

% arrowhead
30.000 slw
n 2520 -7169 m 2475 -7357 l 2430 -7169 l 2475 -7207 l 2520 -7169 l 
 cp gs 0.00 setgray ef gr  col0 s
% Polyline
15.000 slw
gs  clippath
3570 -6029 m 3840 -6030 l 3840 -6120 l 3570 -6119 l 3570 -6119 l 3758 -6074 l 3570 -6029 l cp
eoclip
n 2475 -6075 m
 3825 -6075 l gs col0 s gr gr

% arrowhead
30.000 slw
n 3570 -6029 m 3758 -6074 l 3570 -6119 l 3608 -6074 l 3570 -6029 l 
 cp gs 0.00 setgray ef gr  col0 s
% Polyline
15.000 slw
n 7425 -5321 m 8550 -5321 l 8550 -596 l 7425 -596 l
 cp gs col0 s gr 
% Polyline
n 9675 -5321 m 10800 -5321 l 10800 -596 l 9675 -596 l
 cp gs col0 s gr 
% Polyline
n 6300 -5321 m 10800 -5321 l 10800 -596 l 6300 -596 l
 cp gs col0 s gr 
% Polyline
n 6300 -1946 m 10800 -1946 l 10800 -1271 l 6300 -1271 l
 cp gs col0 s gr 
% Polyline
n 6300 -3296 m 10800 -3296 l 10800 -2621 l 6300 -2621 l
 cp gs col0 s gr 
% Polyline
n 6300 -4646 m 10800 -4646 l 10800 -3971 l 6300 -3971 l
 cp gs col0 s gr 
% Polyline
gs  clippath
3227 8086 m 3417 7896 l 3353 7832 l 3163 8022 l 3163 8022 l 3328 7922 l 3227 8086 l cp
eoclip
n 3375 7875 m
 2475 8775 l gs col0 s gr gr

% arrowhead
30.000 slw
n 3227 8086 m 3328 7922 l 3163 8022 l 3221 8028 l 3227 8086 l 
 cp gs 0.00 setgray ef gr  col0 s
% Polyline
15.000 slw
gs  clippath
3249 6038 m 3439 5848 l 3375 5784 l 3185 5974 l 3185 5974 l 3350 5874 l 3249 6038 l cp
eoclip
n 3397 5827 m
 2497 6727 l gs col0 s gr gr

% arrowhead
30.000 slw
n 3249 6038 m 3350 5874 l 3185 5974 l 3243 5980 l 3249 6038 l 
 cp gs 0.00 setgray ef gr  col0 s
% Polyline
15.000 slw
gs  clippath
3149 -6405 m 3390 -6527 l 3350 -6607 l 3109 -6486 l 3109 -6486 l 3297 -6530 l 3149 -6405 l cp
eoclip
n 3357 -6561 m
 2457 -6111 l gs col0 s gr gr

% arrowhead
30.000 slw
n 3149 -6405 m 3297 -6530 l 3109 -6486 l 3162 -6462 l 3149 -6405 l 
 cp gs 0.00 setgray ef gr  col0 s
/Times-Roman-iso ff 254.00 scf sf
2670 -7230 m
gs 1 -1 sc (Z) col0 sh gr
/Times-Roman-iso ff 190.50 scf sf
2850 -7151 m
gs 1 -1 sc (7) col0 sh gr
/Times-Roman-iso ff 254.00 scf sf
3210 -5760 m
gs 1 -1 sc (X) col0 sh gr
/Times-Roman-iso ff 190.50 scf sf
3390 -5681 m
gs 1 -1 sc (7) col0 sh gr
/Times-Roman-iso ff 254.00 scf sf
1515 -3934 m
gs 1 -1 sc (Z) col0 sh gr
/Times-Roman-iso ff 190.50 scf sf
1695 -3855 m
gs 1 -1 sc (6) col0 sh gr
/Times-Roman-iso ff 254.00 scf sf
3210 -4264 m
gs 1 -1 sc (X) col0 sh gr
/Times-Roman-iso ff 190.50 scf sf
3390 -4185 m
gs 1 -1 sc (6) col0 sh gr
/Times-Roman-iso ff 254.00 scf sf
2640 -5134 m
gs 1 -1 sc (Y) col0 sh gr
/Times-Roman-iso ff 190.50 scf sf
2820 -5055 m
gs 1 -1 sc (6) col0 sh gr
/Times-Roman-iso ff 254.00 scf sf
1095 -1624 m
gs 1 -1 sc (Z) col0 sh gr
/Times-Roman-iso ff 190.50 scf sf
1275 -1545 m
gs 1 -1 sc (5) col0 sh gr
/Times-Roman-iso ff 254.00 scf sf
2595 -3109 m
gs 1 -1 sc (X) col0 sh gr
/Times-Roman-iso ff 190.50 scf sf
2775 -3030 m
gs 1 -1 sc (5) col0 sh gr
/Times-Roman-iso ff 254.00 scf sf
3255 -2239 m
gs 1 -1 sc (Y) col0 sh gr
/Times-Roman-iso ff 190.50 scf sf
3435 -2160 m
gs 1 -1 sc (5) col0 sh gr
/Times-Roman-iso ff 254.00 scf sf
3945 -949 m
gs 1 -1 sc (Z) col0 sh gr
/Times-Roman-iso ff 190.50 scf sf
4125 -870 m
gs 1 -1 sc (4) col0 sh gr
/Times-Roman-iso ff 254.00 scf sf
3810 401 m
gs 1 -1 sc (Y) col0 sh gr
/Times-Roman-iso ff 190.50 scf sf
3990 480 m
gs 1 -1 sc (4) col0 sh gr
/Times-Roman-iso ff 254.00 scf sf
1935 -844 m
gs 1 -1 sc (X) col0 sh gr
/Times-Roman-iso ff 190.50 scf sf
2115 -765 m
gs 1 -1 sc (4) col0 sh gr
/Times-Roman-iso ff 254.00 scf sf
1845 1710 m
gs 1 -1 sc (Z) col0 sh gr
/Times-Roman-iso ff 190.50 scf sf
2025 1789 m
gs 1 -1 sc (3) col0 sh gr
/Times-Roman-iso ff 254.00 scf sf
4365 2681 m
gs 1 -1 sc (X) col0 sh gr
/Times-Roman-iso ff 190.50 scf sf
4545 2760 m
gs 1 -1 sc (3) col0 sh gr
/Times-Roman-iso ff 254.00 scf sf
3810 1796 m
gs 1 -1 sc (Y) col0 sh gr
/Times-Roman-iso ff 190.50 scf sf
3990 1875 m
gs 1 -1 sc (3) col0 sh gr
/Times-Roman-iso ff 254.00 scf sf
3705 3371 m
gs 1 -1 sc (Z) col0 sh gr
/Times-Roman-iso ff 190.50 scf sf
3885 3450 m
gs 1 -1 sc (2) col0 sh gr
/Times-Roman-iso ff 254.00 scf sf
3705 4421 m
gs 1 -1 sc (X) col0 sh gr
/Times-Roman-iso ff 190.50 scf sf
3885 4500 m
gs 1 -1 sc (2) col0 sh gr
/Times-Roman-iso ff 254.00 scf sf
1950 4830 m
gs 1 -1 sc (Y) col0 sh gr
/Times-Roman-iso ff 190.50 scf sf
2130 4909 m
gs 1 -1 sc (2) col0 sh gr
/Times-Roman-iso ff 254.00 scf sf
3645 6525 m
gs 1 -1 sc (X) col0 sh gr
/Times-Roman-iso ff 190.50 scf sf
3825 6604 m
gs 1 -1 sc (1) col0 sh gr
/Times-Roman-iso ff 254.00 scf sf
3675 8576 m
gs 1 -1 sc (X) col0 sh gr
/Times-Roman-iso ff 190.50 scf sf
3855 8655 m
gs 1 -1 sc (0) col0 sh gr
/Times-Roman-iso ff 254.00 scf sf
6975 675 m
gs 1 -1 sc (d) col0 sh gr
/Times-Roman-iso ff 190.50 scf sf
7110 754 m
gs 1 -1 sc (1) col0 sh gr
/Times-Roman-iso ff 254.00 scf sf
7215 675 m
gs 1 -1 sc ( = 127.1) col0 sh gr
/Times-Roman-iso ff 190.50 scf sf
7110 1429 m
gs 1 -1 sc (3) col0 sh gr
/Times-Roman-iso ff 254.00 scf sf
6975 1350 m
gs 1 -1 sc (d) col0 sh gr
/Times-Roman-iso ff 254.00 scf sf
7215 1350 m
gs 1 -1 sc ( = 148.18) col0 sh gr
/Times-Roman-iso ff 254.00 scf sf
6975 2115 m
gs 1 -1 sc (d) col0 sh gr
/Times-Roman-iso ff 190.50 scf sf
7110 2194 m
gs 1 -1 sc (7 ) col0 sh gr
/Times-Roman-iso ff 254.00 scf sf
7260 2115 m
gs 1 -1 sc (= 177.21) col0 sh gr
/Times-Roman-iso ff 254.00 scf sf
8775 675 m
gs 1 -1 sc (a) col0 sh gr
/Times-Roman-iso ff 190.50 scf sf
8895 754 m
gs 1 -1 sc (4 ) col0 sh gr
/Times-Roman-iso ff 254.00 scf sf
9045 675 m
gs 1 -1 sc (= 74) col0 sh gr
/Times-Roman-iso ff 254.00 scf sf
8775 1350 m
gs 1 -1 sc (a) col0 sh gr
/Times-Roman-iso ff 190.50 scf sf
8895 1429 m
gs 1 -1 sc (5) col0 sh gr
/Times-Roman-iso ff 254.00 scf sf
9000 1350 m
gs 1 -1 sc ( = 78.49) col0 sh gr
/Times-Roman-iso ff 254.00 scf sf
8985 -5670 m
gs 1 -1 sc (d) col0 sh gr
/Times-Roman-iso ff 190.50 scf sf
9120 -5591 m
gs 1 -1 sc (i) col0 sh gr
/Symbol ff 254.00 scf sf
10050 -4950 m
gs 1 -1 sc (q) col0 sh gr
/Symbol ff 190.50 scf sf
10200 -4856 m
gs 1 -1 sc (1) col0 sh gr
/Symbol ff 254.00 scf sf
10035 -4230 m
gs 1 -1 sc (q) col0 sh gr
/Symbol ff 190.50 scf sf
10185 -4136 m
gs 1 -1 sc (2) col0 sh gr
/Symbol ff 254.00 scf sf
10050 -3555 m
gs 1 -1 sc (q) col0 sh gr
/Symbol ff 190.50 scf sf
10200 -3461 m
gs 1 -1 sc (3) col0 sh gr
/Symbol ff 254.00 scf sf
10050 -2265 m
gs 1 -1 sc (q) col0 sh gr
/Symbol ff 190.50 scf sf
10200 -2171 m
gs 1 -1 sc (5) col0 sh gr
/Symbol ff 254.00 scf sf
10080 -855 m
gs 1 -1 sc (q) col0 sh gr
/Symbol ff 190.50 scf sf
10230 -761 m
gs 1 -1 sc (7) col0 sh gr
/Times-Roman-iso ff 254.00 scf sf
8955 -4950 m
gs 1 -1 sc (d) col0 sh gr
/Times-Roman-iso ff 190.50 scf sf
9090 -4871 m
gs 1 -1 sc (1) col0 sh gr
/Times-Roman-iso ff 254.00 scf sf
8955 -3555 m
gs 1 -1 sc (d) col0 sh gr
/Times-Roman-iso ff 190.50 scf sf
9090 -3476 m
gs 1 -1 sc (3) col0 sh gr
/Times-Roman-iso ff 254.00 scf sf
8940 -900 m
gs 1 -1 sc (d) col0 sh gr
/Times-Roman-iso ff 190.50 scf sf
9075 -821 m
gs 1 -1 sc (7) col0 sh gr
/Times-Roman-iso ff 254.00 scf sf
6660 -2235 m
gs 1 -1 sc (a) col0 sh gr
/Times-Roman-iso ff 190.50 scf sf
6780 -2156 m
gs 1 -1 sc (4) col0 sh gr
/Times-Roman-iso ff 254.00 scf sf
6675 -1620 m
gs 1 -1 sc (a) col0 sh gr
/Times-Roman-iso ff 190.50 scf sf
6795 -1541 m
gs 1 -1 sc (5) col0 sh gr
/Symbol ff 254.00 scf sf
7710 -4196 m
gs 1 -1 sc (-90) col0 sh gr
/Symbol ff 190.50 scf sf
8115 -4290 m
gs 1 -1 sc (o) col0 sh gr
/Symbol ff 254.00 scf sf
7740 -3536 m
gs 1 -1 sc (+90) col0 sh gr
/Symbol ff 190.50 scf sf
8160 -3630 m
gs 1 -1 sc (o) col0 sh gr
/Symbol ff 254.00 scf sf
7710 -2876 m
gs 1 -1 sc (-90) col0 sh gr
/Symbol ff 190.50 scf sf
8115 -2970 m
gs 1 -1 sc (o) col0 sh gr
/Symbol ff 254.00 scf sf
7710 -2216 m
gs 1 -1 sc (+90) col0 sh gr
/Symbol ff 190.50 scf sf
8130 -2310 m
gs 1 -1 sc (o) col0 sh gr
/Symbol ff 254.00 scf sf
7695 -1541 m
gs 1 -1 sc (+90) col0 sh gr
/Symbol ff 190.50 scf sf
8115 -1635 m
gs 1 -1 sc (o) col0 sh gr
/Symbol ff 254.00 scf sf
7710 -866 m
gs 1 -1 sc (-90) col0 sh gr
/Symbol ff 190.50 scf sf
8115 -960 m
gs 1 -1 sc (o) col0 sh gr
/Times-Roman-iso ff 190.50 scf sf
7905 -5531 m
gs 1 -1 sc (i-1) col0 sh gr
/Symbol ff 254.00 scf sf
7695 -5640 m
gs 1 -1 sc (a) col0 sh gr
/Times-Roman-iso ff 190.50 scf sf
10335 -5516 m
gs 1 -1 sc (i) col0 sh gr
/Symbol ff 254.00 scf sf
10170 -5610 m
gs 1 -1 sc (q) col0 sh gr
/Symbol ff 254.00 scf sf
9825 -2940 m
gs 1 -1 sc (q) col0 sh gr
/Symbol ff 190.50 scf sf
9975 -2846 m
gs 1 -1 sc (4) col0 sh gr
/Symbol ff 254.00 scf sf
10065 -2936 m
gs 1 -1 sc (-90) col0 sh gr
/Symbol ff 190.50 scf sf
10470 -3030 m
gs 1 -1 sc (o) col0 sh gr
/Symbol ff 254.00 scf sf
9825 -1564 m
gs 1 -1 sc (q) col0 sh gr
/Symbol ff 190.50 scf sf
9975 -1470 m
gs 1 -1 sc (6) col0 sh gr
/Symbol ff 254.00 scf sf
10080 -1590 m
gs 1 -1 sc (+90) col0 sh gr
/Symbol ff 190.50 scf sf
10500 -1684 m
gs 1 -1 sc (o) col0 sh gr
/Times-Roman-iso ff 254.00 scf sf
6705 -5610 m
gs 1 -1 sc (a) col0 sh gr
/Times-Roman-iso ff 190.50 scf sf
6825 -5531 m
gs 1 -1 sc (i-1) col0 sh gr
/Times-Roman-iso ff 254.00 scf sf
3270 7796 m
gs 1 -1 sc (Y) col0 sh gr
/Times-Roman-iso ff 190.50 scf sf
3450 7875 m
gs 1 -1 sc (0) col0 sh gr
/Times-Roman-iso ff 254.00 scf sf
1935 7976 m
gs 1 -1 sc (Z) col0 sh gr
/Times-Roman-iso ff 190.50 scf sf
2115 8055 m
gs 1 -1 sc (0) col0 sh gr
/Times-Roman-iso ff 254.00 scf sf
2055 5906 m
gs 1 -1 sc (Z) col0 sh gr
/Times-Roman-iso ff 190.50 scf sf
2235 5985 m
gs 1 -1 sc (1) col0 sh gr
/Times-Roman-iso ff 254.00 scf sf
3405 5771 m
gs 1 -1 sc (Y) col0 sh gr
/Times-Roman-iso ff 190.50 scf sf
3585 5850 m
gs 1 -1 sc (1) col0 sh gr
/Times-Roman-iso ff 254.00 scf sf
3330 -6795 m
gs 1 -1 sc (Y) col0 sh gr
/Times-Roman-iso ff 190.50 scf sf
3510 -6716 m
gs 1 -1 sc (7) col0 sh gr
/Symbol ff 254.00 scf sf
6750 -4871 m
gs 1 -1 sc (0) col0 sh gr
/Symbol ff 254.00 scf sf
7875 -4871 m
gs 1 -1 sc (0) col0 sh gr
/Symbol ff 254.00 scf sf
9030 -4181 m
gs 1 -1 sc (0) col0 sh gr
/Symbol ff 254.00 scf sf
9015 -2831 m
gs 1 -1 sc (0) col0 sh gr
/Symbol ff 254.00 scf sf
9045 -2186 m
gs 1 -1 sc (0) col0 sh gr
/Symbol ff 254.00 scf sf
9060 -1511 m
gs 1 -1 sc (0) col0 sh gr
/Symbol ff 254.00 scf sf
6765 -4196 m
gs 1 -1 sc (0) col0 sh gr
/Symbol ff 254.00 scf sf
6810 -3521 m
gs 1 -1 sc (0) col0 sh gr
/Symbol ff 254.00 scf sf
6795 -2861 m
gs 1 -1 sc (0) col0 sh gr
/Symbol ff 254.00 scf sf
6765 -866 m
gs 1 -1 sc (0) col0 sh gr
/Times-Roman-iso ff 254.00 scf sf
5865 -5561 m
gs 1 -1 sc (i) col0 sh gr
/Times-Roman-iso ff 254.00 scf sf
5850 -4841 m
gs 1 -1 sc (1) col0 sh gr
/Times-Roman-iso ff 254.00 scf sf
5880 -4196 m
gs 1 -1 sc (2) col0 sh gr
/Times-Roman-iso ff 254.00 scf sf
5910 -3536 m
gs 1 -1 sc (3) col0 sh gr
/Times-Roman-iso ff 254.00 scf sf
5925 -2156 m
gs 1 -1 sc (5) col0 sh gr
/Times-Roman-iso ff 254.00 scf sf
5925 -1496 m
gs 1 -1 sc (6) col0 sh gr
/Times-Roman-iso ff 254.00 scf sf
5895 -2876 m
gs 1 -1 sc (4) col0 sh gr
/Times-Roman-iso ff 254.00 scf sf
5970 -821 m
gs 1 -1 sc (7) col0 sh gr
/Times-Roman-iso ff 254.00 scf sf
3195 9345 m
gs 1 -1 sc (Base Frame) col0 sh gr
/Times-Roman-iso ff 254.00 scf sf
1710 -7965 m
gs 1 -1 sc (End-effector frame) col0 sh gr
%  text box 
% Polyline
15.000 slw
n 4793 7957 m 5107 7957 l 5107 7567 l 4793 7567 l
 cp gs col7 1.00 shd ef gr gs col4 s gr 
%  text box 
% Polyline
n 518 -825 m 832 -825 l 832 -1199 l 518 -1199 l
 cp gs col7 1.00 shd ef gr gs col4 s gr 
%  text box 
% Polyline
n 4118 -2850 m 4432 -2850 l 4432 -3224 l 4118 -3224 l
 cp gs col7 1.00 shd ef gr gs col4 s gr 
%  text box 
% Polyline
n 4118 -4867 m 4432 -4867 l 4432 -5257 l 4118 -5257 l
 cp gs col7 1.00 shd ef gr gs col4 s gr 
%  text box 
% Polyline
n 968 3457 m 1282 3457 l 1282 3067 l 968 3067 l
 cp gs col7 1.00 shd ef gr gs col4 s gr 
%  fixed text 
/Times-Roman-iso ff 254.00 scf sf
5048 7762 m
gs 1 -1 sc  90.0 rot (d1) dup sw pop 2 div neg 0 rm  col0 sh gr
%  fixed text 
/Times-Roman-iso ff 254.00 scf sf
773 -1012 m
gs 1 -1 sc  90.0 rot (a4) dup sw pop 2 div neg 0 rm  col0 sh gr
%  fixed text 
/Times-Roman-iso ff 254.00 scf sf
4373 -3037 m
gs 1 -1 sc  90.0 rot (a5) dup sw pop 2 div neg 0 rm  col0 sh gr
%  fixed text 
/Times-Roman-iso ff 254.00 scf sf
4373 -5062 m
gs 1 -1 sc  90.0 rot (d7) dup sw pop 2 div neg 0 rm  col0 sh gr
%  fixed text 
/Times-Roman-iso ff 254.00 scf sf
1223 3262 m
gs 1 -1 sc  90.0 rot (d3) dup sw pop 2 div neg 0 rm  col0 sh gr
% here ends figure;
pagefooter
showpage
%%Trailer
%EOF
