#FIG 3.2  Produced by xfig version 3.2.5c
Landscape
Center
Metric
A4      
100.00
Single
-2
1200 2
5 1 0 2 4 7 50 -1 -1 0.000 0 1 0 0 2407.167 5392.916 2475 4035 1065 5610 2490 6750
5 1 0 2 4 7 50 -1 -1 0.000 0 1 0 0 2520.215 1244.254 2460 30 1335 1515 2520 2460
6 2670 -7455 3120 -7005
4 0 0 50 -1 0 16 0.0000 0 195 180 2670 -7230 Z\001
4 0 0 50 -1 0 12 0.0000 0 150 105 2850 -7151 7\001
-6
6 3210 -5985 3660 -5535
4 0 0 50 -1 0 16 0.0000 0 195 180 3210 -5760 X\001
4 0 0 50 -1 0 12 0.0000 0 150 105 3390 -5681 7\001
-6
6 1515 -4129 1800 -3855
4 0 0 50 -1 0 16 0.0000 0 195 180 1515 -3934 Z\001
4 0 0 50 -1 0 12 0.0000 0 150 105 1695 -3855 6\001
-6
6 3210 -4459 3495 -4185
4 0 0 50 -1 0 16 0.0000 0 195 180 3210 -4264 X\001
4 0 0 50 -1 0 12 0.0000 0 150 105 3390 -4185 6\001
-6
6 2640 -5329 2925 -5055
4 0 0 50 -1 0 16 0.0000 0 195 180 2640 -5134 Y\001
4 0 0 50 -1 0 12 0.0000 0 150 105 2820 -5055 6\001
-6
6 1095 -1819 1380 -1545
4 0 0 50 -1 0 16 0.0000 0 195 180 1095 -1624 Z\001
4 0 0 50 -1 0 12 0.0000 0 150 105 1275 -1545 5\001
-6
6 2595 -3304 2880 -3030
4 0 0 50 -1 0 16 0.0000 0 195 180 2595 -3109 X\001
4 0 0 50 -1 0 12 0.0000 0 150 105 2775 -3030 5\001
-6
6 3255 -2434 3540 -2160
4 0 0 50 -1 0 16 0.0000 0 195 180 3255 -2239 Y\001
4 0 0 50 -1 0 12 0.0000 0 150 105 3435 -2160 5\001
-6
6 3945 -1144 4230 -870
4 0 0 50 -1 0 16 0.0000 0 195 180 3945 -949 Z\001
4 0 0 50 -1 0 12 0.0000 0 150 105 4125 -870 4\001
-6
6 3810 206 4095 480
4 0 0 50 -1 0 16 0.0000 0 195 180 3810 401 Y\001
4 0 0 50 -1 0 12 0.0000 0 150 105 3990 480 4\001
-6
6 1935 -1039 2220 -765
4 0 0 50 -1 0 16 0.0000 0 195 180 1935 -844 X\001
4 0 0 50 -1 0 12 0.0000 0 150 105 2115 -765 4\001
-6
6 1845 1515 2130 1789
4 0 0 50 -1 0 16 0.0000 0 195 180 1845 1710 Z\001
4 0 0 50 -1 0 12 0.0000 0 150 105 2025 1789 3\001
-6
6 4365 2486 4650 2760
4 0 0 50 -1 0 16 0.0000 0 195 180 4365 2681 X\001
4 0 0 50 -1 0 12 0.0000 0 150 105 4545 2760 3\001
-6
6 3810 1601 4095 1875
4 0 0 50 -1 0 16 0.0000 0 195 180 3810 1796 Y\001
4 0 0 50 -1 0 12 0.0000 0 150 105 3990 1875 3\001
-6
6 3705 3176 3990 3450
4 0 0 50 -1 0 16 0.0000 0 195 180 3705 3371 Z\001
4 0 0 50 -1 0 12 0.0000 0 150 105 3885 3450 2\001
-6
6 3705 4226 3990 4500
4 0 0 50 -1 0 16 0.0000 0 195 180 3705 4421 X\001
4 0 0 50 -1 0 12 0.0000 0 150 105 3885 4500 2\001
-6
6 1950 4635 2235 4909
4 0 0 50 -1 0 16 0.0000 0 195 180 1950 4830 Y\001
4 0 0 50 -1 0 12 0.0000 0 150 105 2130 4909 2\001
-6
6 3645 6330 3930 6604
4 0 0 50 -1 0 16 0.0000 0 195 180 3645 6525 X\001
4 0 0 50 -1 0 12 0.0000 0 150 105 3825 6604 1\001
-6
6 3675 8381 3960 8655
4 0 0 50 -1 0 16 0.0000 0 195 180 3675 8576 X\001
4 0 0 50 -1 0 12 0.0000 0 150 105 3855 8655 0\001
-6
# Dimension line: User-defined text
6 4725 6525 5175 9000
# main dimension line
2 1 0 2 4 7 50 -1 -1 6.000 0 0 -1 1 1 2
	1 1 2.00 120.00 240.00
	1 1 2.00 120.00 240.00
	 4950 6750 4950 8775
# text box
2 3 0 2 4 7 49 -1 20 0.000 0 0 -1 0 0 5
	 4793 7957 5107 7957 5107 7567 4793 7567 4793 7957
# tick
2 1 0 1 4 7 50 -1 -1 6.000 0 0 -1 0 0 2
	 4793 8775 5107 8775
# tick
2 1 0 1 4 7 50 -1 -1 6.000 0 0 -1 0 0 2
	 4793 6750 5107 6750
# fixed text
4 1 0 48 -1 0 16 1.5708 0 195 270 5048 7762 d1\001
-6
# Dimension line: User-defined text
6 450 -2250 900 225
# main dimension line
2 1 0 2 4 7 50 -1 -1 6.000 0 0 -1 1 1 2
	1 1 2.00 120.00 240.00
	1 1 2.00 120.00 240.00
	 675 -2025 675 0
# text box
2 3 0 2 4 7 49 -1 20 0.000 0 0 -1 0 0 5
	 518 -825 832 -825 832 -1199 518 -1199 518 -825
# tick
2 1 0 1 4 7 50 -1 -1 6.000 0 0 -1 0 0 2
	 518 0 832 0
# tick
2 1 0 1 4 7 50 -1 -1 6.000 0 0 -1 0 0 2
	 518 -2025 832 -2025
# fixed text
4 1 0 48 -1 0 16 1.5708 0 195 255 773 -1012 a4\001
-6
# Dimension line: User-defined text
6 4050 -4275 4500 -1800
# main dimension line
2 1 0 2 4 7 50 -1 -1 6.000 0 0 -1 1 1 2
	1 1 2.00 120.00 240.00
	1 1 2.00 120.00 240.00
	 4275 -4050 4275 -2025
# text box
2 3 0 2 4 7 49 -1 20 0.000 0 0 -1 0 0 5
	 4118 -2850 4432 -2850 4432 -3224 4118 -3224 4118 -2850
# tick
2 1 0 1 4 7 50 -1 -1 6.000 0 0 -1 0 0 2
	 4118 -2025 4432 -2025
# tick
2 1 0 1 4 7 50 -1 -1 6.000 0 0 -1 0 0 2
	 4118 -4050 4432 -4050
# fixed text
4 1 0 48 -1 0 16 1.5708 0 195 255 4373 -3037 a5\001
-6
# Dimension line: User-defined text
6 4050 -6300 4500 -3825
# main dimension line
2 1 0 2 4 7 50 -1 -1 6.000 0 0 -1 1 1 2
	1 1 2.00 120.00 240.00
	1 1 2.00 120.00 240.00
	 4275 -6075 4275 -4050
# text box
2 3 0 2 4 7 49 -1 20 0.000 0 0 -1 0 0 5
	 4118 -4867 4432 -4867 4432 -5257 4118 -5257 4118 -4867
# tick
2 1 0 1 4 7 50 -1 -1 6.000 0 0 -1 0 0 2
	 4118 -4050 4432 -4050
# tick
2 1 0 1 4 7 50 -1 -1 6.000 0 0 -1 0 0 2
	 4118 -6075 4432 -6075
# fixed text
4 1 0 48 -1 0 16 1.5708 0 195 270 4373 -5062 d7\001
-6
# Dimension line: User-defined text
6 900 2250 1350 4275
# main dimension line
2 1 0 2 4 7 50 -1 -1 6.000 0 0 -1 1 1 2
	1 1 2.00 120.00 240.00
	1 1 2.00 120.00 240.00
	 1125 2475 1125 4050
# text box
2 3 0 2 4 7 49 -1 20 0.000 0 0 -1 0 0 5
	 968 3457 1282 3457 1282 3067 968 3067 968 3457
# tick
2 1 0 1 4 7 50 -1 -1 6.000 0 0 -1 0 0 2
	 968 4050 1282 4050
# tick
2 1 0 1 4 7 50 -1 -1 6.000 0 0 -1 0 0 2
	 968 2475 1282 2475
# fixed text
4 1 0 48 -1 0 16 1.5708 0 195 270 1223 3262 d3\001
-6
6 6300 0 10350 2475
6 6975 450 8100 900
4 0 0 50 -1 0 16 0.0000 0 195 135 6975 675 d\001
4 0 0 50 -1 0 12 0.0000 0 150 105 7110 754 1\001
4 0 0 50 -1 0 16 0.0000 0 195 870 7215 675  = 127.1\001
-6
6 6975 1125 8325 1575
4 0 0 50 -1 0 12 0.0000 0 150 105 7110 1429 3\001
4 0 0 50 -1 0 16 0.0000 0 195 135 6975 1350 d\001
4 0 0 50 -1 0 16 0.0000 0 195 1005 7215 1350  = 148.18\001
-6
6 6975 1800 8325 2250
4 0 0 50 -1 0 16 0.0000 0 195 135 6975 2115 d\001
4 0 0 50 -1 0 12 0.0000 0 150 150 7110 2194 7 \001
4 0 0 50 -1 0 16 0.0000 0 195 945 7260 2115 = 177.21\001
-6
6 8775 450 9675 900
4 0 0 50 -1 0 16 0.0000 0 135 120 8775 675 a\001
4 0 0 50 -1 0 12 0.0000 0 150 150 8895 754 4 \001
4 0 0 50 -1 0 16 0.0000 0 195 480 9045 675 = 74\001
-6
6 8775 1125 9900 1575
4 0 0 50 -1 0 16 0.0000 0 135 120 8775 1350 a\001
4 0 0 50 -1 0 12 0.0000 0 150 105 8895 1429 5\001
4 0 0 50 -1 0 16 0.0000 0 195 870 9000 1350  = 78.49\001
-6
2 2 0 2 0 7 50 -1 -1 6.000 0 0 -1 0 0 5
	 6525 225 10125 225 10125 2250 6525 2250 6525 225
-6
6 8985 -5865 9165 -5591
4 0 0 50 -1 0 16 0.0000 0 195 135 8985 -5670 d\001
4 0 0 50 -1 0 12 0.0000 0 150 45 9120 -5591 i\001
-6
6 10050 -5145 10305 -4856
4 0 0 50 -1 32 16 0.0000 4 195 150 10050 -4950 q\001
4 0 0 50 -1 32 12 0.0000 4 150 105 10200 -4856 1\001
-6
6 10035 -4425 10290 -4136
4 0 0 50 -1 32 16 0.0000 4 195 150 10035 -4230 q\001
4 0 0 50 -1 32 12 0.0000 4 150 105 10185 -4136 2\001
-6
6 10050 -3750 10305 -3461
4 0 0 50 -1 32 16 0.0000 4 195 150 10050 -3555 q\001
4 0 0 50 -1 32 12 0.0000 4 150 105 10200 -3461 3\001
-6
6 10050 -2460 10305 -2171
4 0 0 50 -1 32 16 0.0000 4 195 150 10050 -2265 q\001
4 0 0 50 -1 32 12 0.0000 4 150 105 10200 -2171 5\001
-6
6 10080 -1050 10335 -761
4 0 0 50 -1 32 16 0.0000 4 195 150 10080 -855 q\001
4 0 0 50 -1 32 12 0.0000 4 150 105 10230 -761 7\001
-6
6 8955 -5145 9195 -4871
4 0 0 50 -1 0 16 0.0000 0 195 135 8955 -4950 d\001
4 0 0 50 -1 0 12 0.0000 0 150 105 9090 -4871 1\001
-6
6 8955 -3750 9195 -3476
4 0 0 50 -1 0 16 0.0000 0 195 135 8955 -3555 d\001
4 0 0 50 -1 0 12 0.0000 0 150 105 9090 -3476 3\001
-6
6 8940 -1095 9180 -821
4 0 0 50 -1 0 16 0.0000 0 195 135 8940 -900 d\001
4 0 0 50 -1 0 12 0.0000 0 150 105 9075 -821 7\001
-6
6 6660 -2370 6885 -2156
4 0 0 50 -1 0 16 0.0000 0 135 120 6660 -2235 a\001
4 0 0 50 -1 0 12 0.0000 0 150 105 6780 -2156 4\001
-6
6 6675 -1755 6900 -1541
4 0 0 50 -1 0 16 0.0000 0 135 120 6675 -1620 a\001
4 0 0 50 -1 0 12 0.0000 0 150 105 6795 -1541 5\001
-6
6 7710 -4395 8235 -4196
4 0 0 50 -1 32 16 0.0000 4 195 405 7710 -4196 -90\001
4 0 0 50 -1 32 12 0.0000 4 105 120 8115 -4290 o\001
-6
6 7740 -3735 8280 -3536
4 0 0 50 -1 32 16 0.0000 4 195 420 7740 -3536 +90\001
4 0 0 50 -1 32 12 0.0000 4 105 120 8160 -3630 o\001
-6
6 7710 -3075 8235 -2876
4 0 0 50 -1 32 16 0.0000 4 195 405 7710 -2876 -90\001
4 0 0 50 -1 32 12 0.0000 4 105 120 8115 -2970 o\001
-6
6 7710 -2415 8250 -2216
4 0 0 50 -1 32 16 0.0000 4 195 420 7710 -2216 +90\001
4 0 0 50 -1 32 12 0.0000 4 105 120 8130 -2310 o\001
-6
6 7695 -1740 8235 -1541
4 0 0 50 -1 32 16 0.0000 4 195 420 7695 -1541 +90\001
4 0 0 50 -1 32 12 0.0000 4 105 120 8115 -1635 o\001
-6
6 7710 -1065 8235 -866
4 0 0 50 -1 32 16 0.0000 4 195 405 7710 -866 -90\001
4 0 0 50 -1 32 12 0.0000 4 105 120 8115 -960 o\001
-6
6 7695 -5775 8115 -5531
4 0 0 50 -1 0 12 0.0000 0 150 210 7905 -5531 i-1\001
4 0 0 50 -1 32 16 0.0000 4 135 180 7695 -5640 a\001
-6
6 10170 -5805 10380 -5516
4 0 0 50 -1 0 12 0.0000 0 150 45 10335 -5516 i\001
4 0 0 50 -1 32 16 0.0000 4 195 150 10170 -5610 q\001
-6
6 9825 -3135 10590 -2846
6 9825 -3135 10080 -2846
4 0 0 50 -1 32 16 0.0000 4 195 150 9825 -2940 q\001
4 0 0 50 -1 32 12 0.0000 4 150 105 9975 -2846 4\001
-6
6 10065 -3135 10590 -2936
4 0 0 50 -1 32 16 0.0000 4 195 405 10065 -2936 -90\001
4 0 0 50 -1 32 12 0.0000 4 105 120 10470 -3030 o\001
-6
-6
6 9825 -1789 10620 -1470
6 9825 -1759 10080 -1470
4 0 0 50 -1 32 16 0.0000 4 195 150 9825 -1564 q\001
4 0 0 50 -1 32 12 0.0000 4 150 105 9975 -1470 6\001
-6
6 10080 -1789 10620 -1590
4 0 0 50 -1 32 16 0.0000 4 195 420 10080 -1590 +90\001
4 0 0 50 -1 32 12 0.0000 4 105 120 10500 -1684 o\001
-6
-6
6 6705 -5715 7110 -5490
4 0 0 50 -1 0 16 0.0000 0 135 120 6705 -5610 a\001
4 0 0 50 -1 0 12 0.0000 0 150 210 6825 -5531 i-1\001
-6
6 3270 7601 3555 7875
4 0 0 50 -1 0 16 0.0000 0 195 180 3270 7796 Y\001
4 0 0 50 -1 0 12 0.0000 0 150 105 3450 7875 0\001
-6
6 1935 7781 2220 8055
4 0 0 50 -1 0 16 0.0000 0 195 180 1935 7976 Z\001
4 0 0 50 -1 0 12 0.0000 0 150 105 2115 8055 0\001
-6
6 2055 5711 2340 5985
4 0 0 50 -1 0 16 0.0000 0 195 180 2055 5906 Z\001
4 0 0 50 -1 0 12 0.0000 0 150 105 2235 5985 1\001
-6
6 3405 5576 3690 5850
4 0 0 50 -1 0 16 0.0000 0 195 180 3405 5771 Y\001
4 0 0 50 -1 0 12 0.0000 0 150 105 3585 5850 1\001
-6
6 3330 -7020 3780 -6570
4 0 0 50 -1 0 16 0.0000 0 195 180 3330 -6795 Y\001
4 0 0 50 -1 0 12 0.0000 0 150 105 3510 -6716 7\001
-6
2 1 0 2 0 7 50 -1 -1 0.000 0 0 -1 1 0 2
	2 1 3.00 90.00 150.00
	 2475 8775 4275 8775
2 1 0 2 0 7 50 -1 -1 0.000 0 0 -1 1 0 2
	2 1 3.00 90.00 150.00
	 2475 8775 2475 7650
2 1 0 2 0 7 50 -1 -1 0.000 0 0 -1 1 0 2
	2 1 3.00 90.00 150.00
	 2475 6750 2475 5625
2 1 0 2 0 7 50 -1 -1 0.000 0 0 -1 1 0 2
	2 1 3.00 90.00 150.00
	 2475 6750 4275 6750
2 1 0 2 0 7 50 -1 -1 0.000 0 0 -1 1 0 2
	2 1 3.00 90.00 150.00
	 2475 4050 4275 4050
2 1 0 2 0 7 50 -1 -1 0.000 0 0 -1 1 0 2
	2 1 3.00 90.00 150.00
	 2475 4050 2475 5175
2 1 0 2 0 7 50 -1 -1 0.000 0 0 -1 1 0 2
	2 1 3.00 90.00 150.00
	 2475 4050 3600 3150
2 1 0 2 0 7 50 -1 -1 0.000 0 0 -1 1 0 2
	2 1 3.00 90.00 150.00
	 2475 2475 4275 2475
2 1 0 2 0 7 50 -1 -1 0.000 0 0 -1 1 0 2
	2 1 3.00 90.00 150.00
	 2475 2475 2475 1350
2 1 0 2 0 7 50 -1 -1 0.000 0 0 -1 1 0 2
	2 1 3.00 90.00 150.00
	 2475 2475 3825 1350
2 1 0 2 0 7 50 -1 -1 0.000 0 0 -1 1 0 2
	2 1 3.00 90.00 150.00
	 2475 0 4275 0
2 1 0 2 0 7 50 -1 -1 0.000 0 0 -1 1 0 2
	2 1 3.00 90.00 150.00
	 2475 0 2475 -1125
2 1 0 2 0 7 50 -1 -1 0.000 0 0 -1 1 0 2
	2 1 3.00 90.00 150.00
	 2475 0 3825 -900
2 1 0 2 0 7 50 -1 -1 0.000 0 0 -1 1 0 2
	2 1 3.00 90.00 150.00
	 2475 -2025 1125 -2025
2 1 0 2 0 7 50 -1 -1 0.000 0 0 -1 1 0 2
	2 1 3.00 90.00 150.00
	 2475 -2025 2475 -3150
2 1 0 2 0 7 50 -1 -1 0.000 0 0 -1 1 0 2
	2 1 3.00 90.00 150.00
	 2475 -2025 3375 -2700
2 1 0 2 0 7 50 -1 -1 0.000 0 0 -1 1 0 2
	2 1 3.00 90.00 150.00
	 2475 -4050 2475 -5400
2 1 0 2 0 7 50 -1 -1 0.000 0 0 -1 1 0 2
	2 1 3.00 90.00 150.00
	 2475 -4050 3825 -4050
2 1 0 2 0 7 50 -1 -1 0.000 0 0 -1 1 0 2
	2 1 3.00 90.00 150.00
	 2475 -4050 1575 -3600
2 1 0 2 0 7 50 -1 -1 0.000 0 0 -1 1 0 2
	2 1 3.00 90.00 150.00
	 2475 -6075 2475 -7425
2 1 0 2 0 7 50 -1 -1 0.000 0 0 -1 1 0 2
	2 1 3.00 90.00 150.00
	 2475 -6075 3825 -6075
2 2 0 2 0 7 50 -1 -1 6.000 0 0 -1 0 0 5
	 7425 -5321 8550 -5321 8550 -596 7425 -596 7425 -5321
2 2 0 2 0 7 50 -1 -1 6.000 0 0 -1 0 0 5
	 9675 -5321 10800 -5321 10800 -596 9675 -596 9675 -5321
2 2 0 2 0 7 50 -1 -1 6.000 0 0 -1 0 0 5
	 6300 -5321 10800 -5321 10800 -596 6300 -596 6300 -5321
2 2 0 2 0 7 50 -1 -1 6.000 0 0 -1 0 0 5
	 6300 -1946 10800 -1946 10800 -1271 6300 -1271 6300 -1946
2 2 0 2 0 7 50 -1 -1 6.000 0 0 -1 0 0 5
	 6300 -3296 10800 -3296 10800 -2621 6300 -2621 6300 -3296
2 2 0 2 0 7 50 -1 -1 6.000 0 0 -1 0 0 5
	 6300 -4646 10800 -4646 10800 -3971 6300 -3971 6300 -4646
2 1 0 2 0 7 50 -1 -1 0.000 0 0 -1 0 1 2
	2 1 3.00 90.00 150.00
	 3375 7875 2475 8775
2 1 0 2 0 7 50 -1 -1 0.000 0 0 -1 0 1 2
	2 1 3.00 90.00 150.00
	 3397 5827 2497 6727
2 1 0 2 0 7 50 -1 -1 0.000 0 0 -1 0 1 2
	2 1 3.00 90.00 150.00
	 3357 -6561 2457 -6111
4 0 0 50 -1 32 16 0.0000 4 195 135 6750 -4871 0\001
4 0 0 50 -1 32 16 0.0000 4 195 135 7875 -4871 0\001
4 0 0 50 -1 32 16 0.0000 4 195 135 9030 -4181 0\001
4 0 0 50 -1 32 16 0.0000 4 195 135 9015 -2831 0\001
4 0 0 50 -1 32 16 0.0000 4 195 135 9045 -2186 0\001
4 0 0 50 -1 32 16 0.0000 4 195 135 9060 -1511 0\001
4 0 0 50 -1 32 16 0.0000 4 195 135 6765 -4196 0\001
4 0 0 50 -1 32 16 0.0000 4 195 135 6810 -3521 0\001
4 0 0 50 -1 32 16 0.0000 4 195 135 6795 -2861 0\001
4 0 0 50 -1 32 16 0.0000 4 195 135 6765 -866 0\001
4 0 0 50 -1 0 16 0.0000 0 195 75 5865 -5561 i\001
4 0 0 50 -1 0 16 0.0000 0 195 135 5850 -4841 1\001
4 0 0 50 -1 0 16 0.0000 0 195 135 5880 -4196 2\001
4 0 0 50 -1 0 16 0.0000 0 195 135 5910 -3536 3\001
4 0 0 50 -1 0 16 0.0000 0 195 135 5925 -2156 5\001
4 0 0 50 -1 0 16 0.0000 0 195 135 5925 -1496 6\001
4 0 0 50 -1 0 16 0.0000 0 195 135 5895 -2876 4\001
4 0 0 50 -1 0 16 0.0000 0 195 135 5970 -821 7\001
4 0 0 50 -1 0 16 0.0000 0 195 1320 3195 9345 Base Frame\001
4 0 0 50 -1 0 16 0.0000 0 195 2130 1710 -7965 End-effector frame\001
